614198 662732 509
259218 957139 525
891971 939393 476
665256 858406 525
986300 988131 396
299804 914939 525
987510 994900 365
343750 606717 470
442953 914863 525
379527 876523 525
185701 670345 509
490568 861662 525
409634 477314 449
987066 992421 396
41565 232231 443
694310 795640 504
251780 974793 525
916212 936089 476
735533 798220 468
166877 472828 449
125903 127274 331
819235 937251 525
59792 321770 443
70659 111550 354
614500 713661 509
532237 891430 525
307908 831952 509
8916 314065 443
379652 578994 470
369564 417555 449
667139 988491 525
46098 191271 383
397344 422253 449
963696 972799 458
374088 564582 470
967792 983389 458
804229 996553 525
288264 765266 509
344411 524454 470
583271 608194 434
909033 950597 507
501812 548411 470
426341 574853 470
573437 607387 434
986445 996298 396
896517 978885 507
189965 875120 525
444833 598249 470
458580 636609 509
74413 167926 383
321419 655489 509
465178 573472 470
644667 882041 525
882680 947500 507
55900 392141 443
535888 739431 509
350604 749940 509
611801 951520 525
27772 397482 443
688187 862996 525
891538 941098 507
201418 490405 449
506263 758237 509
616737 744849 509
426913 533452 470
507977 793467 509
557542 852449 525
221032 782343 509
496470 568653 470
488664 966853 525
116925 152543 375
861929 873800 432
389920 683498 509
988292 999262 440
19264 302773 443
299491 805973 509
317993 827998 509
99488 378319 443
10932 498607 449
749973 879016 525
775706 879333 525
21479 222730 386
360676 516232 470
987872 989465 321
489709 860376 525
724512 872291 525
200924 894186 525
587782 773765 509
67630 182837 383
941042 944890 383
567846 716585 509
329572 511797 449
866409 986034 507
68450 230634 443
272992 467154 449
628320 922000 525
760573 845282 525
280052 578666 470
752645 825812 468
929409 950023 507
481304 683049 509
277847 901413 525
88479 404490 443
999650 999920 290
929107 970732 507
896647 978870 507
51600 444064 449
838790 843579 388
353962 385259 423
404776 802135 509
383098 762943 509
1613 635143 509
467166 750988 509
607568 980000 525
329233 768971 509
30422 582881 470
835109 968453 525
179209 361802 443
85579 821708 509
115174 488992 449
658385 949156 525
265261 412397 449
560805 921315 525
814027 959748 525
163242 609165 470
848207 895620 445
78657 266723 443
471264 554793 470
358484 739728 509
357749 884342 525
747702 939026 525
646516 751415 504
500183 996511 525
96342 991118 525
206621 621829 470
500295 914531 525
302027 466615 449
978758 992458 427
959775 966492 414
733406 816965 468
458544 638327 509
526803 885516 525
580609 925953 525
128501 994845 525
584294 740583 509
387843 940864 525
596333 711941 509
156898 648267 509
978994 993279 427
844425 940561 507
717337 956672 525
606082 645164 509
566596 762497 509
436154 838763 525
970096 974346 458
524732 729071 509
958988 959621 308
368037 392881 436
463629 660359 509
20156 176067 383
559977 652726 509
712791 733377 411
968703 995248 458
242009 359540 441
836581 987889 525
513726 535084 439
849155 870204 419
717525 827863 468
283689 672967 509
907195 977714 507
105605 969705 525
393898 876982 525
948995 994918 458
47800 368268 443
582829 641682 509
344910 551205 470
469370 727279 509
39565 628962 509
708578 977878 525
210844 630150 509
761317 766038 375
351639 818505 509
636103 698839 442
352964 424389 449
199762 722214 509
501170 578655 470
673371 927539 525
795516 964525 525
697823 973771 525
873874 919131 476
275730 641839 509
393596 794320 509
426040 839200 525
978425 999640 440
23668 365714 443
171877 716371 509
634714 839934 525
307160 651331 509
664840 792243 504
16492 96713 351
218531 287284 443
516344 748432 509
